Glukometr/glucose.vcd
$date
     Jul 05, 2017       13:19:49
$end

$version
 SystemC 2.3.1-Accellera --- Apr 18 2017 12:06:35
$end

$timescale
     1 ps
$end

$scope module SystemC $end
$var wire    1  aaaaa  clock_sig       $end
$var wire    1  aaaab  reset_sig       $end
$var wire    1  aaaac  RunPump_sig       $end
$var wire    1  aaaad  H_ind_sig       $end
$var wire    1  aaaae  L_ind_sig       $end
$var wire   16  aaaaf  GlucoseLevel_sig [15:0]  $end
$var wire   16  aaaag  InsulineLevelToInject_sig [15:0]  $end
$var wire   16  aaaah  DispGlucoseLevel_sig [15:0]  $end
$var wire    8  aaaai  InsulineLevel_sig [7:0]  $end
$upscope $end
$enddefinitions  $end

$comment
All initial values are dumped below at time 0 sec = 0 timescale units.
$end

$dumpvars
1aaaaa
1aaaab
0aaaac
0aaaad
0aaaae
b0 aaaaf
b0 aaaag
b0 aaaah
b0 aaaai
$end

#1000000000
0aaaaa

#2000000000
1aaaaa
0aaaab

#3000000000
0aaaaa
1aaaae

#4000000000
1aaaaa
b1010 aaaaf

#5000000000
0aaaaa

#6000000000
1aaaaa
b10100 aaaaf

#7000000000
0aaaaa

#8000000000
1aaaaa
b11110 aaaaf

#9000000000
0aaaaa

#10000000000
1aaaaa
b101000 aaaaf

#11000000000
0aaaaa

#12000000000
1aaaaa
b110010 aaaaf

#13000000000
0aaaaa

#14000000000
1aaaaa
b111100 aaaaf

#15000000000
0aaaaa

#16000000000
1aaaaa
b1000110 aaaaf

#17000000000
0aaaaa

#18000000000
1aaaaa
b1010000 aaaaf

#19000000000
0aaaaa
0aaaae

#20000000000
1aaaaa
b1011010 aaaaf

#21000000000
0aaaaa

#22000000000
1aaaaa
b1100100 aaaaf

#23000000000
0aaaaa

#24000000000
1aaaaa
b1101110 aaaaf

#25000000000
0aaaaa

#26000000000
1aaaaa
b1111000 aaaaf

#27000000000
0aaaaa
1aaaac
1aaaad

#28000000000
1aaaaa
b10000010 aaaaf

#29000000000
0aaaaa

#30000000000
1aaaaa
b10001100 aaaaf

#31000000000
0aaaaa

#32000000000
1aaaaa
b10010110 aaaaf

#33000000000
0aaaaa

#34000000000
1aaaaa
b10100000 aaaaf

#35000000000
0aaaaa

#36000000000
1aaaaa
b10101010 aaaaf

#37000000000
0aaaaa

#38000000000
1aaaaa
b10110100 aaaaf

#39000000000
0aaaaa

#40000000000
1aaaaa
b10111110 aaaaf

#41000000000
0aaaaa

#42000000000
1aaaaa
b11001000 aaaaf

#43000000000
0aaaaa

#44000000000
1aaaaa
b11010010 aaaaf

#45000000000
0aaaaa

#46000000000
1aaaaa
b11011100 aaaaf

#47000000000
0aaaaa

#48000000000
1aaaaa
b11100110 aaaaf

#49000000000
0aaaaa

#50000000000
1aaaaa
b11110000 aaaaf

#51000000000
0aaaaa

#52000000000
1aaaaa
b11111010 aaaaf

#53000000000
0aaaaa

#54000000000
1aaaaa
b100000100 aaaaf

#55000000000
0aaaaa

#56000000000
1aaaaa
b100001110 aaaaf

#57000000000
0aaaaa

#58000000000
1aaaaa
b100011000 aaaaf

#59000000000
0aaaaa

#60000000000
1aaaaa
b100100010 aaaaf

#61000000000
0aaaaa

#62000000000
1aaaaa
b100101100 aaaaf

#63000000000
0aaaaa

#64000000000
1aaaaa
b100110110 aaaaf

#65000000000
0aaaaa

#66000000000
1aaaaa
b101000000 aaaaf

#67000000000
0aaaaa

#68000000000
1aaaaa
b101001010 aaaaf

#69000000000
0aaaaa

#70000000000
1aaaaa
b101010100 aaaaf

#71000000000
0aaaaa

#72000000000
1aaaaa
b101011110 aaaaf

#73000000000
0aaaaa

#74000000000
1aaaaa
b101101000 aaaaf

#75000000000
0aaaaa

#76000000000
1aaaaa
b101110010 aaaaf

#77000000000
0aaaaa

#78000000000
1aaaaa
b101111100 aaaaf

#79000000000
0aaaaa

#80000000000
1aaaaa
b110000110 aaaaf

#81000000000
0aaaaa

#82000000000
1aaaaa
b110010000 aaaaf

#83000000000
0aaaaa

#84000000000
1aaaaa
b110011010 aaaaf

#85000000000
0aaaaa

#86000000000
1aaaaa
b110100100 aaaaf

#87000000000
0aaaaa

#88000000000
1aaaaa
b110101110 aaaaf

#89000000000
0aaaaa

#90000000000
1aaaaa
b110111000 aaaaf

#91000000000
0aaaaa

#92000000000
1aaaaa
b111000010 aaaaf

#93000000000
0aaaaa

#94000000000
1aaaaa
b111001100 aaaaf

#95000000000
0aaaaa

#96000000000
1aaaaa
b111010110 aaaaf

#97000000000
0aaaaa

#98000000000
1aaaaa
b111100000 aaaaf

#99000000000
0aaaaa

#100000000000
1aaaaa
b111101010 aaaaf

#101000000000
0aaaaa

#102000000000
1aaaaa
b111110100 aaaaf

#103000000000
0aaaaa

#104000000000
1aaaaa
b111111110 aaaaf

#105000000000
0aaaaa

#106000000000
1aaaaa
b1000001000 aaaaf

#107000000000
0aaaaa

#108000000000
1aaaaa
b1000010010 aaaaf

#109000000000
0aaaaa

#110000000000
1aaaaa
b1000011100 aaaaf

#111000000000
0aaaaa

#112000000000
1aaaaa
b1000100110 aaaaf

#113000000000
0aaaaa

#114000000000
1aaaaa
b1000110000 aaaaf

#115000000000
0aaaaa

#116000000000
1aaaaa
b1000111010 aaaaf

#117000000000
0aaaaa

#118000000000
1aaaaa
b1001000100 aaaaf

#119000000000
0aaaaa

#120000000000
1aaaaa
b1001001110 aaaaf

#121000000000
0aaaaa

#122000000000
1aaaaa
b1001011000 aaaaf

#123000000000
0aaaaa

#124000000000
1aaaaa
b1001100010 aaaaf

#125000000000
0aaaaa

#126000000000
1aaaaa
b1001101100 aaaaf

#127000000000
0aaaaa

#128000000000
1aaaaa
b1001110110 aaaaf

